<?xml version="1.0" encoding="utf-8"?>
<svg xmlns="http://www.w3.org/2000/svg" width="100" height="60" viewBox="610 689 100 60">
  <g fill="none" fill-rule="evenodd" transform="translate(610 689)">
    <rect width="100" height="60" fill="#129566" rx="4"/>
    <path fill="#FFF" d="M33.47596 26.0395c0-8.8787 7.33086-16.07763 16.37526-16.07763 9.04348 0 16.37526 7.19892 16.37526 16.07763 0 8.8805-7.33178 16.07763-16.37526 16.07763-9.0444 0-16.37526-7.19712-16.37526-16.07763zm16.37526 14.95356c8.41034 0 15.2277-6.69563 15.2277-14.95356 0-8.25794-6.81736-14.95176-15.2277-14.95176-8.41126 0-15.2286 6.69382-15.2286 14.95176 0 8.25793 6.81734 14.95356 15.2286 14.95356z"/>
    <path fill="#FFF" d="M54.36606 22.65995c2.60068 3.86774 1.4715 9.04585-2.51878 11.5631-3.99028 2.51903-9.33152 1.42722-11.93036-2.44053l2.47644-1.61365c1.6887 2.511 5.1572 3.22194 7.74867 1.586 2.59055-1.63595 3.324-4.99882 1.63623-7.50893l2.5878-1.586"/>
    <path fill="#000" d="M60.13338 19.11154c-2.60436-3.86597-7.94836-4.95154-11.93404-2.42894-3.98753 2.52438-5.1084 7.70427-2.50405 11.56846l2.5206-1.54853c-1.6896-2.50922-.9617-5.8712 1.627-7.5107 2.5887-1.63952 6.0572-.93216 7.7505 1.57617l2.5399-1.65646"/>
    <path fill="#FFF" d="M59.06877 45.47207h.81205l-.3388 1.95885h2.20502l.3388-1.95885h.81187l-.8147 4.71226h-.8118l.3433-1.98585h-2.2051l-.3433 1.98585h-.8118l.8146-4.71226m-5.50933 2.45035l.0023-.0134c.23165-1.3397 1.40496-2.43695 2.80458-2.43695.8517 0 1.3141.30287 1.682.73376l-.6275.61255c-.3091-.35008-.6644-.58555-1.1926-.58555-.8781 0-1.653.74038-1.8124 1.66278l-.00232.0135c-.1594.9222.3518 1.6696 1.2364 1.6696.5678 0 .9705-.229 1.43176-.6059l.4283.5385c-.57027.5115-1.15435.8348-2.01915.8348-1.3467 0-2.16523-1.0704-1.9313-2.4235m-2.125-1.683h-1.4657l.1328-.76733h3.7497l-.1326.76735H52.253l-.68193 3.9449h-.81854l.6819-3.9449m-3.0184-.76737h.81203l-.81454 4.71228h-.81206l.81455-4.71226m-7.9164.0134h.8781l.4986 3.4938 1.7418-3.5072h.6864l.5294 3.5072 1.7065-3.4938h.85164l-2.42466 4.74587H44.261l-.55015-3.38616-1.72095 3.38612H41.29l-.79042-4.7459M35.765 49.5652l.5909-.5925c.37475.39047.78527.61272 1.35303.61272.5017 0 .86048-.2425.92088-.5926l.0025-.0134c.0581-.3367-.0951-.5185-.9185-.7204-.9418-.24243-1.445-.5385-1.2949-1.4069l.0024-.0134c.1396-.808.8964-1.3667 1.814-1.3667.67347 0 1.172.20863 1.5745.5925l-.54393.62594c-.3613-.31628-.748-.4847-1.1705-.4847-.47543 0-.79575.24905-.84917.5589l-.00234.01323c-.0629.3636.12046.5253.9743.7405.93516.2424 1.3753.5991 1.24034 1.3801l-.0025.0134c-.15245.882-.92306 1.4069-1.8935 1.4069-.7064 0-1.3301-.24907-1.79735-.7538"/>
  </g>
</svg>
